            .setMaster("local[*]")
            .setAppName("vaadincik")
            .set("spark.logConf", "true")
            .set("spark.driver.memory", "4g")

2018-03-31 12:08:52,216 DEBUG [MyUI:88] Reload Bounds{southWestLng=82.87502288818361, southWestLat=54.992229234117154, northEastLng=82.99750328063965, northEastLat=55.01689622271932}, zoom 14.0
2018-03-31 12:08:52,594 DEBUG [SparkApi:57] Count 34 by 378 ms
2018-03-31 12:08:52,889 DEBUG [SparkApi:74] Select by 293 ms
2018-03-31 12:08:55,105 DEBUG [SparkApi:87] KMeans.train by 2213 ms
2018-03-31 12:08:55,258 DEBUG [SparkApi:104] Iterate by 153 ms

2018-03-31 12:08:57,504 DEBUG [MyUI:88] Reload Bounds{southWestLng=82.81373977661134, southWestLat=54.97984066118198, northEastLng=83.05870056152345, northEastLat=55.029174700566294}, zoom 13.0
2018-03-31 12:08:57,868 DEBUG [SparkApi:57] Count 146 by 363 ms
2018-03-31 12:08:58,094 DEBUG [SparkApi:74] Select by 225 ms
2018-03-31 12:09:00,603 DEBUG [SparkApi:87] KMeans.train by 2508 ms
2018-03-31 12:09:00,740 DEBUG [SparkApi:104] Iterate by 136 ms

2018-03-31 12:09:02,307 DEBUG [MyUI:88] Reload Bounds{southWestLng=82.69134521484376, southWestLat=54.95515078240878, northEastLng=83.18126678466798, northEastLat=55.053818871062326}, zoom 12.0
2018-03-31 12:09:02,645 DEBUG [SparkApi:57] Count 372 by 337 ms
2018-03-31 12:09:02,845 DEBUG [SparkApi:74] Select by 200 ms
2018-03-31 12:09:06,308 DEBUG [SparkApi:87] KMeans.train by 3462 ms
2018-03-31 12:09:06,436 DEBUG [SparkApi:104] Iterate by 128 ms

2018-03-31 12:09:07,899 DEBUG [MyUI:88] Reload Bounds{southWestLng=82.4462127685547, southWestLat=54.90572528204868, northEastLng=83.42605590820314, northEastLat=55.10306153843502}, zoom 11.0
2018-03-31 12:09:08,195 DEBUG [SparkApi:57] Count 587 by 296 ms
2018-03-31 12:09:08,385 DEBUG [SparkApi:74] Select by 190 ms
2018-03-31 12:09:12,121 DEBUG [SparkApi:87] KMeans.train by 3736 ms
2018-03-31 12:09:12,254 DEBUG [SparkApi:104] Iterate by 132 ms

2018-03-31 12:09:13,424 DEBUG [MyUI:88] Reload Bounds{southWestLng=81.95663452148439, southWestLat=54.80669117253879, northEastLng=83.91632080078125, northEastLat=55.20136431793619}, zoom 10.0
2018-03-31 12:09:13,710 DEBUG [SparkApi:57] Count 754 by 285 ms
2018-03-31 12:09:13,906 DEBUG [SparkApi:74] Select by 196 ms
2018-03-31 12:09:15,693 DEBUG [SparkApi:87] KMeans.train by 1786 ms
2018-03-31 12:09:15,825 DEBUG [SparkApi:104] Iterate by 132 ms

2018-03-31 12:09:20,435 DEBUG [MyUI:88] Reload Bounds{southWestLng=80.97747802734376, southWestLat=54.607092251605366, northEastLng=84.89685058593751, northEastLat=55.39645920459718}, zoom 9.0
2018-03-31 12:09:20,714 DEBUG [SparkApi:57] Count 979 by 279 ms
2018-03-31 12:09:20,949 DEBUG [SparkApi:74] Select by 233 ms
2018-03-31 12:09:23,465 DEBUG [SparkApi:87] KMeans.train by 2516 ms
2018-03-31 12:09:23,617 DEBUG [SparkApi:104] Iterate by 151 ms

2018-03-31 12:09:24,784 DEBUG [MyUI:88] Reload Bounds{southWestLng=79.01916503906251, southWestLat=54.20653814780141, northEastLng=86.85791015625, northEastLat=55.785312528030325}, zoom 8.0
2018-03-31 12:09:25,062 DEBUG [SparkApi:57] Count 2085 by 277 ms
2018-03-31 12:09:25,256 DEBUG [SparkApi:74] Select by 193 ms
2018-03-31 12:09:28,571 DEBUG [SparkApi:87] KMeans.train by 3315 ms
2018-03-31 12:09:28,705 DEBUG [SparkApi:104] Iterate by 134 ms

2018-03-31 12:09:29,803 DEBUG [MyUI:88] Reload Bounds{southWestLng=75.10253906250001, southWestLat=53.39030799492768, northEastLng=90.78002929687501, northEastLat=56.54842979740826}, zoom 7.0
2018-03-31 12:09:30,065 DEBUG [SparkApi:57] Count 4872 by 261 ms
2018-03-31 12:09:30,277 DEBUG [SparkApi:74] Select by 211 ms
2018-03-31 12:09:34,311 DEBUG [SparkApi:87] KMeans.train by 4034 ms
2018-03-31 12:09:34,445 DEBUG [SparkApi:104] Iterate by 134 ms

2018-03-31 12:09:35,661 DEBUG [MyUI:88] Reload Bounds{southWestLng=67.25830078125001, southWestLat=51.7096029755275, northEastLng=98.61328125, northEastLat=58.02942164933012}, zoom 6.0
2018-03-31 12:09:35,966 DEBUG [SparkApi:57] Count 10975 by 305 ms
2018-03-31 12:09:36,217 DEBUG [SparkApi:74] Select by 248 ms
2018-03-31 12:09:41,057 DEBUG [SparkApi:87] KMeans.train by 4839 ms
2018-03-31 12:09:41,206 DEBUG [SparkApi:104] Iterate by 149 ms

2018-03-31 12:09:42,356 DEBUG [MyUI:88] Reload Bounds{southWestLng=51.59179687500001, southWestLat=48.151714389425635, northEastLng=114.30175781250001, northEastLat=60.81563367590654}, zoom 5.0
2018-03-31 12:09:42,620 DEBUG [SparkApi:57] Count 31154 by 263 ms
2018-03-31 12:09:42,829 DEBUG [SparkApi:74] Select by 207 ms
2018-03-31 12:09:48,980 DEBUG [SparkApi:87] KMeans.train by 6150 ms
2018-03-31 12:09:49,574 DEBUG [SparkApi:104] Iterate by 594 ms

2018-03-31 12:09:50,961 DEBUG [MyUI:88] Reload Bounds{southWestLng=20.214843750000004, southWestLat=40.23401047048636, northEastLng=145.63476562500003, northEastLat=65.7301121258771}, zoom 4.0
2018-03-31 12:09:51,298 DEBUG [SparkApi:57] Count 96053 by 337 ms
2018-03-31 12:09:51,513 DEBUG [SparkApi:74] Select by 214 ms
2018-03-31 12:09:59,621 DEBUG [SparkApi:87] KMeans.train by 8107 ms
2018-03-31 12:10:00,075 DEBUG [SparkApi:104] Iterate by 453 ms

2018-03-31 12:10:01,518 DEBUG [MyUI:88] Reload Bounds{southWestLng=-42.5390625, southWestLat=21.419872048043747, northEastLng=208.30078125, northEastLat=73.33263067910708}, zoom 3.0
2018-03-31 12:10:01,787 DEBUG [SparkApi:57] Count 97455 by 269 ms
2018-03-31 12:10:01,998 DEBUG [SparkApi:74] Select by 210 ms
2018-03-31 12:10:10,037 DEBUG [SparkApi:87] KMeans.train by 8039 ms
2018-03-31 12:10:10,507 DEBUG [SparkApi:104] Iterate by 469 ms

2018-03-31 12:11:27,873 DEBUG [MyUI:88] Reload Bounds{southWestLng=-186.67968750000003, southWestLat=-38.18293616211834, northEastLng=315.00000000000006, northEastLat=79.17621592203975}, zoom 2.0
2018-03-31 12:11:28,180 DEBUG [SparkApi:57] Count 97479 by 301 ms
2018-03-31 12:11:28,356 DEBUG [SparkApi:74] Select by 176 ms
2018-03-31 12:11:36,487 DEBUG [SparkApi:87] KMeans.train by 8131 ms
2018-03-31 12:11:36,907 DEBUG [SparkApi:104] Iterate by 420 ms

